{
  "paths": {
    "/products": {
      "get": {
        "deprecated": false,
        "description": "",
        "responses": {
          "200": {
            "description": "response",
            "content": {
              "application/json": {
                "schema": {
                  "type": "array",
                  "items": {
                    "$ref": "#/components/schemas/Product"
                  }
                }
              }
            }
          },
          "403": {
            "description": "Forbidden",
            "content": {
              "application/json": {
                "schema": {
                  "$ref": "#/components/schemas/Error"
                }
              }
            }
          },
          "404": {
            "description": "Not found",
            "content": {
              "application/json": {
                "schema": {
                  "$ref": "#/components/schemas/Error"
                }
              }
            }
          },
          "default": {
            "description": "unexpected error",
            "content": {
              "application/json": {
                "schema": {
                  "$ref": "#/components/schemas/Error"
                }
              }
            }
          }
        },
        "summary": "",
        "tags": [
          "Product"
        ],
        "parameters": [
          {
            "name": "_limit",
            "in": "query",
            "required": false,
            "description": "Maximum number of results possible",
            "schema": {
              "type": "integer"
            },
            "deprecated": false
          },
          {
            "name": "_sort",
            "in": "query",
            "required": false,
            "description": "Sort according to a specific field.",
            "schema": {
              "type": "string"
            },
            "deprecated": false
          },
          {
            "name": "_start",
            "in": "query",
            "required": false,
            "description": "Skip a specific number of entries (especially useful for pagination)",
            "schema": {
              "type": "integer"
            },
            "deprecated": false
          },
          {
            "name": "=",
            "in": "query",
            "required": false,
            "description": "Get entries that matches exactly your input",
            "schema": {
              "type": "string"
            },
            "deprecated": false
          },
          {
            "name": "_ne",
            "in": "query",
            "required": false,
            "description": "Get records that are not equals to something",
            "schema": {
              "type": "string"
            },
            "deprecated": false
          },
          {
            "name": "_lt",
            "in": "query",
            "required": false,
            "description": "Get record that are lower than a value",
            "schema": {
              "type": "string"
            },
            "deprecated": false
          },
          {
            "name": "_lte",
            "in": "query",
            "required": false,
            "description": "Get records that are lower than or equal to a value",
            "schema": {
              "type": "string"
            },
            "deprecated": false
          },
          {
            "name": "_gt",
            "in": "query",
            "required": false,
            "description": "Get records that are greater than a value",
            "schema": {
              "type": "string"
            },
            "deprecated": false
          },
          {
            "name": "_gte",
            "in": "query",
            "required": false,
            "description": "Get records that are greater than  or equal a value",
            "schema": {
              "type": "string"
            },
            "deprecated": false
          },
          {
            "name": "_contains",
            "in": "query",
            "required": false,
            "description": "Get records that contains a value",
            "schema": {
              "type": "string"
            },
            "deprecated": false
          },
          {
            "name": "_containss",
            "in": "query",
            "required": false,
            "description": "Get records that contains (case sensitive) a value",
            "schema": {
              "type": "string"
            },
            "deprecated": false
          },
          {
            "name": "_in",
            "in": "query",
            "required": false,
            "description": "Get records that matches any value in the array of values",
            "schema": {
              "type": "array",
              "items": {
                "type": "string"
              }
            },
            "deprecated": false
          },
          {
            "name": "_nin",
            "in": "query",
            "required": false,
            "description": "Get records that doesn't match any value in the array of values",
            "schema": {
              "type": "array",
              "items": {
                "type": "string"
              }
            },
            "deprecated": false
          }
        ]
      },
      "post": {
        "deprecated": false,
        "description": "Create a new record",
        "responses": {
          "200": {
            "description": "response",
            "content": {
              "application/json": {
                "schema": {
                  "$ref": "#/components/schemas/Product"
                }
              }
            }
          },
          "403": {
            "description": "Forbidden",
            "content": {
              "application/json": {
                "schema": {
                  "$ref": "#/components/schemas/Error"
                }
              }
            }
          },
          "404": {
            "description": "Not found",
            "content": {
              "application/json": {
                "schema": {
                  "$ref": "#/components/schemas/Error"
                }
              }
            }
          },
          "default": {
            "description": "unexpected error",
            "content": {
              "application/json": {
                "schema": {
                  "$ref": "#/components/schemas/Error"
                }
              }
            }
          }
        },
        "summary": "",
        "tags": [
          "Product"
        ],
        "requestBody": {
          "description": "",
          "required": true,
          "content": {
            "application/json": {
              "schema": {
                "$ref": "#/components/schemas/NewProduct"
              }
            }
          }
        }
      }
    },
    "/products/count": {
      "get": {
        "deprecated": false,
        "description": "",
        "responses": {
          "200": {
            "description": "response",
            "content": {
              "application/json": {
                "schema": {
                  "properties": {
                    "count": {
                      "type": "integer"
                    }
                  }
                }
              }
            }
          },
          "403": {
            "description": "Forbidden",
            "content": {
              "application/json": {
                "schema": {
                  "$ref": "#/components/schemas/Error"
                }
              }
            }
          },
          "404": {
            "description": "Not found",
            "content": {
              "application/json": {
                "schema": {
                  "$ref": "#/components/schemas/Error"
                }
              }
            }
          },
          "default": {
            "description": "unexpected error",
            "content": {
              "application/json": {
                "schema": {
                  "$ref": "#/components/schemas/Error"
                }
              }
            }
          }
        },
        "summary": "",
        "tags": [
          "Product"
        ],
        "parameters": []
      }
    },
    "/products/{id}": {
      "get": {
        "deprecated": false,
        "description": "",
        "responses": {
          "200": {
            "description": "response",
            "content": {
              "application/json": {
                "schema": {
                  "$ref": "#/components/schemas/Product"
                }
              }
            }
          },
          "403": {
            "description": "Forbidden",
            "content": {
              "application/json": {
                "schema": {
                  "$ref": "#/components/schemas/Error"
                }
              }
            }
          },
          "404": {
            "description": "Not found",
            "content": {
              "application/json": {
                "schema": {
                  "$ref": "#/components/schemas/Error"
                }
              }
            }
          },
          "default": {
            "description": "unexpected error",
            "content": {
              "application/json": {
                "schema": {
                  "$ref": "#/components/schemas/Error"
                }
              }
            }
          }
        },
        "summary": "",
        "tags": [
          "Product"
        ],
        "parameters": [
          {
            "name": "id",
            "in": "path",
            "description": "",
            "deprecated": false,
            "required": true,
            "schema": {
              "type": "string"
            }
          }
        ]
      },
      "put": {
        "deprecated": false,
        "description": "Update a record",
        "responses": {
          "200": {
            "description": "response",
            "content": {
              "application/json": {
                "schema": {
                  "$ref": "#/components/schemas/Product"
                }
              }
            }
          },
          "403": {
            "description": "Forbidden",
            "content": {
              "application/json": {
                "schema": {
                  "$ref": "#/components/schemas/Error"
                }
              }
            }
          },
          "404": {
            "description": "Not found",
            "content": {
              "application/json": {
                "schema": {
                  "$ref": "#/components/schemas/Error"
                }
              }
            }
          },
          "default": {
            "description": "unexpected error",
            "content": {
              "application/json": {
                "schema": {
                  "$ref": "#/components/schemas/Error"
                }
              }
            }
          }
        },
        "summary": "",
        "tags": [
          "Product"
        ],
        "requestBody": {
          "description": "",
          "required": true,
          "content": {
            "application/json": {
              "schema": {
                "$ref": "#/components/schemas/NewProduct"
              }
            }
          }
        },
        "parameters": [
          {
            "name": "id",
            "in": "path",
            "description": "",
            "deprecated": false,
            "required": true,
            "schema": {
              "type": "string"
            }
          }
        ]
      },
      "delete": {
        "deprecated": false,
        "description": "Delete a record",
        "responses": {
          "200": {
            "description": "deletes a single record based on the ID supplied",
            "content": {
              "application/json": {
                "schema": {
                  "type": "integer",
                  "format": "int64"
                }
              }
            }
          },
          "403": {
            "description": "Forbidden",
            "content": {
              "application/json": {
                "schema": {
                  "$ref": "#/components/schemas/Error"
                }
              }
            }
          },
          "404": {
            "description": "Not found",
            "content": {
              "application/json": {
                "schema": {
                  "$ref": "#/components/schemas/Error"
                }
              }
            }
          },
          "default": {
            "description": "unexpected error",
            "content": {
              "application/json": {
                "schema": {
                  "$ref": "#/components/schemas/Error"
                }
              }
            }
          }
        },
        "summary": "",
        "tags": [
          "Product"
        ],
        "parameters": [
          {
            "name": "id",
            "in": "path",
            "description": "",
            "deprecated": false,
            "required": true,
            "schema": {
              "type": "string"
            }
          }
        ]
      }
    }
  },
  "components": {
    "schemas": {
      "Product": {
        "required": [
          "id",
          "ImageProduct"
        ],
        "properties": {
          "id": {
            "type": "string"
          },
          "NameProduct": {
            "type": "string"
          },
          "ImageProduct": {
            "type": "array",
            "items": {
              "required": [
                "id",
                "name",
                "hash",
                "mime",
                "size",
                "url",
                "provider"
              ],
              "properties": {
                "id": {
                  "type": "string"
                },
                "name": {
                  "type": "string"
                },
                "alternativeText": {
                  "type": "string"
                },
                "caption": {
                  "type": "string"
                },
                "width": {
                  "type": "integer"
                },
                "height": {
                  "type": "integer"
                },
                "formats": {
                  "type": "object"
                },
                "hash": {
                  "type": "string"
                },
                "ext": {
                  "type": "string"
                },
                "mime": {
                  "type": "string"
                },
                "size": {
                  "type": "number"
                },
                "url": {
                  "type": "string"
                },
                "previewUrl": {
                  "type": "string"
                },
                "provider": {
                  "type": "string"
                },
                "provider_metadata": {
                  "type": "object"
                },
                "related": {
                  "type": "string"
                },
                "created_by": {
                  "type": "string"
                },
                "updated_by": {
                  "type": "string"
                }
              }
            }
          },
          "ProductDetail": {
            "type": "string"
          },
          "Approved": {
            "type": "boolean",
            "default": false
          },
          "needProduct": {
            "type": "string"
          },
          "categories": {
            "required": [
              "id",
              "Hide",
              "NameCategory"
            ],
            "properties": {
              "id": {
                "type": "string"
              },
              "Hide": {
                "type": "boolean"
              },
              "NameCategory": {
                "type": "string"
              },
              "created_by": {
                "type": "string"
              },
              "updated_by": {
                "type": "string"
              }
            }
          },
          "products_deal": {
            "type": "array",
            "items": {
              "required": [
                "id",
                "ImageProduct"
              ],
              "properties": {
                "id": {
                  "type": "string"
                },
                "NameProduct": {
                  "type": "string"
                },
                "ImageProduct": {
                  "type": "array",
                  "items": {
                    "type": "string"
                  }
                },
                "ProductDetail": {
                  "type": "string"
                },
                "Approved": {
                  "type": "boolean"
                },
                "needProduct": {
                  "type": "string"
                },
                "categories": {
                  "type": "string"
                },
                "products_deal": {
                  "type": "array",
                  "items": {
                    "type": "string"
                  }
                },
                "products_todeal": {
                  "type": "array",
                  "items": {
                    "type": "string"
                  }
                },
                "is_delete": {
                  "type": "boolean"
                },
                "created_date": {
                  "type": "datetime"
                },
                "updated_date": {
                  "type": "datetime"
                },
                "ip_post": {
                  "type": "string"
                },
                "post_by": {
                  "type": "string"
                },
                "is_deal_product": {
                  "type": "string"
                },
                "created_by": {
                  "type": "string"
                },
                "updated_by": {
                  "type": "string"
                }
              }
            }
          },
          "products_todeal": {
            "type": "array",
            "items": {
              "required": [
                "id",
                "ImageProduct"
              ],
              "properties": {
                "id": {
                  "type": "string"
                },
                "NameProduct": {
                  "type": "string"
                },
                "ImageProduct": {
                  "type": "array",
                  "items": {
                    "type": "string"
                  }
                },
                "ProductDetail": {
                  "type": "string"
                },
                "Approved": {
                  "type": "boolean"
                },
                "needProduct": {
                  "type": "string"
                },
                "categories": {
                  "type": "string"
                },
                "products_deal": {
                  "type": "array",
                  "items": {
                    "type": "string"
                  }
                },
                "products_todeal": {
                  "type": "array",
                  "items": {
                    "type": "string"
                  }
                },
                "is_delete": {
                  "type": "boolean"
                },
                "created_date": {
                  "type": "datetime"
                },
                "updated_date": {
                  "type": "datetime"
                },
                "ip_post": {
                  "type": "string"
                },
                "post_by": {
                  "type": "string"
                },
                "is_deal_product": {
                  "type": "string"
                },
                "created_by": {
                  "type": "string"
                },
                "updated_by": {
                  "type": "string"
                }
              }
            }
          },
          "is_delete": {
            "type": "boolean",
            "default": false
          },
          "created_date": {
            "type": "datetime"
          },
          "updated_date": {
            "type": "datetime"
          },
          "ip_post": {
            "type": "string"
          },
          "post_by": {
            "required": [
              "id"
            ],
            "properties": {
              "id": {
                "type": "string"
              },
              "phone": {
                "type": "string"
              },
              "avatar": {
                "type": "string"
              },
              "is_delete": {
                "type": "boolean"
              },
              "created_date": {
                "type": "datetime"
              },
              "updated_date": {
                "type": "datetime"
              },
              "fullname": {
                "type": "string"
              },
              "ip_register": {
                "type": "string"
              },
              "ip_lastuse": {
                "type": "string"
              },
              "created_by": {
                "type": "string"
              },
              "updated_by": {
                "type": "string"
              }
            }
          },
          "is_deal_product": {
            "required": [
              "id",
              "ImageProduct"
            ],
            "properties": {
              "id": {
                "type": "string"
              },
              "NameProduct": {
                "type": "string"
              },
              "ImageProduct": {
                "type": "array",
                "items": {
                  "type": "string"
                }
              },
              "ProductDetail": {
                "type": "string"
              },
              "Approved": {
                "type": "boolean"
              },
              "needProduct": {
                "type": "string"
              },
              "categories": {
                "type": "string"
              },
              "products_deal": {
                "type": "array",
                "items": {
                  "type": "string"
                }
              },
              "products_todeal": {
                "type": "array",
                "items": {
                  "type": "string"
                }
              },
              "is_delete": {
                "type": "boolean"
              },
              "created_date": {
                "type": "datetime"
              },
              "updated_date": {
                "type": "datetime"
              },
              "ip_post": {
                "type": "string"
              },
              "post_by": {
                "type": "string"
              },
              "is_deal_product": {
                "type": "string"
              },
              "created_by": {
                "type": "string"
              },
              "updated_by": {
                "type": "string"
              }
            }
          },
          "created_by": {
            "required": [
              "id",
              "email"
            ],
            "properties": {
              "id": {
                "type": "string"
              },
              "firstname": {
                "type": "string"
              },
              "lastname": {
                "type": "string"
              },
              "username": {
                "type": "string"
              },
              "email": {
                "type": "string"
              },
              "password": {
                "type": "string"
              },
              "resetPasswordToken": {
                "type": "string"
              },
              "registrationToken": {
                "type": "string"
              },
              "isActive": {
                "type": "boolean"
              },
              "roles": {
                "type": "array",
                "items": {
                  "type": "string"
                }
              },
              "blocked": {
                "type": "boolean"
              }
            }
          },
          "updated_by": {
            "required": [
              "id",
              "email"
            ],
            "properties": {
              "id": {
                "type": "string"
              },
              "firstname": {
                "type": "string"
              },
              "lastname": {
                "type": "string"
              },
              "username": {
                "type": "string"
              },
              "email": {
                "type": "string"
              },
              "password": {
                "type": "string"
              },
              "resetPasswordToken": {
                "type": "string"
              },
              "registrationToken": {
                "type": "string"
              },
              "isActive": {
                "type": "boolean"
              },
              "roles": {
                "type": "array",
                "items": {
                  "type": "string"
                }
              },
              "blocked": {
                "type": "boolean"
              }
            }
          }
        }
      },
      "NewProduct": {
        "properties": {
          "NameProduct": {
            "type": "string"
          },
          "ProductDetail": {
            "type": "string"
          },
          "Approved": {
            "type": "boolean",
            "default": false
          },
          "needProduct": {
            "type": "string"
          },
          "categories": {
            "type": "string"
          },
          "products_deal": {
            "type": "array",
            "items": {
              "type": "string"
            }
          },
          "products_todeal": {
            "type": "array",
            "items": {
              "type": "string"
            }
          },
          "is_delete": {
            "type": "boolean",
            "default": false
          },
          "created_date": {
            "type": "datetime"
          },
          "updated_date": {
            "type": "datetime"
          },
          "ip_post": {
            "type": "string"
          },
          "post_by": {
            "type": "string"
          },
          "is_deal_product": {
            "type": "string"
          },
          "created_by": {
            "type": "string"
          },
          "updated_by": {
            "type": "string"
          }
        }
      }
    }
  },
  "tags": [
    {
      "name": "Product"
    }
  ]
}